"userid","evaluation_like_set","collaborative_likes","content_likes","evaluation_dislike_set","collaborative_dislikes","content_dislikes"
1,8,0,1,10,0,0
2,13,1,0,9,0,0
3,10,5,2,5,0,0
4,10,1,0,12,0,0
5,9,1,1,6,0,0
6,16,2,4,8,0,0
7,15,2,2,4,0,0
8,13,2,0,13,0,0
9,14,0,1,8,0,0
10,9,2,2,8,0,0
11,11,2,1,8,0,0
12,9,0,0,12,0,0
13,15,3,0,11,0,1
14,8,1,1,12,1,0
15,12,4,2,12,0,0
16,12,4,3,15,0,0
17,10,2,1,9,0,0
18,8,0,1,6,0,0
19,18,0,0,7,0,0
20,15,0,0,8,0,0
21,13,1,2,14,0,0
22,9,2,2,13,0,0
23,19,2,0,10,0,0
24,12,2,0,11,0,0
25,12,0,1,13,0,0
26,11,3,1,7,0,0
27,12,2,2,4,0,0
28,12,0,2,11,0,0
29,18,3,1,10,0,0
30,4,0,0,11,0,0
31,13,3,1,6,0,0
32,8,0,0,8,0,0
33,8,2,1,11,0,1
34,9,2,0,11,0,1
35,13,3,2,13,0,0
36,7,1,2,10,1,0
37,17,1,0,9,0,0
38,8,1,0,8,0,0
39,9,0,0,18,0,0
40,10,0,2,9,0,0
41,13,3,6,12,0,0
42,11,4,1,13,0,0
43,7,0,0,8,0,0
44,9,1,1,11,0,0
45,15,1,2,13,0,1
46,18,2,1,4,0,0
47,16,1,1,6,0,0
48,12,2,1,8,0,0
49,11,2,1,4,0,0
50,9,2,0,7,0,0
51,14,0,3,7,0,0
52,14,3,0,8,0,0
53,11,3,0,4,0,0
54,12,0,0,14,0,0
55,11,1,0,5,0,0
56,13,3,3,11,0,0
57,15,3,0,12,0,0
58,8,1,0,8,0,0
59,6,2,1,12,0,0
60,12,2,1,3,0,0
61,17,1,0,10,0,0
62,10,2,1,13,0,0
63,17,2,0,10,0,0
64,10,2,0,8,0,0
65,8,0,0,8,0,0
66,12,1,1,6,0,0
67,6,0,1,11,0,0
68,6,1,2,18,0,0
69,10,1,1,5,0,0
70,18,3,1,9,0,0
71,14,1,0,10,0,0
72,8,1,0,11,0,0
73,9,1,1,7,0,0
74,12,2,1,12,0,1
75,16,3,1,7,0,0
76,13,2,2,13,0,0
77,12,3,4,8,0,0
78,13,1,0,6,0,0
79,18,4,1,8,0,0
80,13,3,1,11,0,0
81,8,2,1,13,0,0
82,9,1,0,6,0,0
83,9,2,2,11,0,0
84,9,4,0,12,0,0
85,13,0,0,17,0,0
86,11,3,1,11,0,0
87,10,2,0,7,0,0
88,13,3,1,8,0,0
89,7,1,0,13,0,0
90,9,3,0,7,0,0
91,8,1,1,8,0,0
92,7,2,0,7,0,0
93,16,3,1,12,0,0
94,11,0,0,10,0,0
95,13,4,1,11,0,0
96,15,1,1,6,0,0
97,13,5,2,9,0,0
98,6,1,1,8,0,0
99,14,6,2,10,0,0
100,19,4,2,7,0,0
